<svg version="1.0" id="shopping-cart-svg" xmlns="http://www.w3.org/2000/svg" xmlns:xlink="http://www.w3.org/1999/xlink" x="0px" y="0px"
	 width="20px" height="18px" viewBox="0 0 20 18" style="enable-background:new 0 0 20 18;" xml:space="preserve">
<style type="text/css">
	.shopping-cart-layer{fill:#fff;}
</style>
<g>
	<path class="shopping-cart-layer" d="M18.8,3.1c-0.3-0.4-0.9-0.7-1.4-0.7H5.6c-0.3,0-0.7,0.1-0.9,0.3L4,0.6C3.9,0.2,3.6,0,3.3,0H2.4H0.6
		C0.3,0,0,0.3,0,0.6v0.1C0,1,0.3,1.3,0.6,1.3h2.3l1.2,4.1l1.6,5.7c-0.9,0.2-1.6,1.1-1.6,2c0,1.1,0.9,2,2,2.1
		c-0.1,0.3-0.1,0.6-0.1,0.8c0.1,1,0.9,1.8,1.9,1.9C9,18.1,10,17.1,10,15.9c0-0.2,0-0.5-0.1-0.7h2.4c-0.1,0.3-0.1,0.6-0.1,0.9
		c0.1,1,0.9,1.7,1.9,1.8c1.2,0.1,2.2-0.9,2.2-2.1c0-1.1-1-2.1-2.1-2.1h-8c-0.4,0-0.7-0.3-0.7-0.7c0-0.4,0.3-0.7,0.7-0.7h1.2h6.5h1.8
		c0.8,0,1.5-0.6,1.7-1.4l1.6-6.4C19.2,4.1,19.1,3.5,18.8,3.1z M14.3,15.2c0.4,0,0.7,0.3,0.7,0.7s-0.3,0.7-0.7,0.7s-0.7-0.3-0.7-0.7
		S13.9,15.2,14.3,15.2z M8,15.2c0.4,0,0.7,0.3,0.7,0.7S8.4,16.6,8,16.6c-0.4,0-0.7-0.3-0.7-0.7C7.3,15.5,7.6,15.2,8,15.2z M5.5,5.4
		L5.2,4.3c0-0.2,0-0.3,0.1-0.3c0-0.1,0.1-0.2,0.3-0.2h1.3l0.4,1.6L5.5,5.4L5.5,5.4L5.5,5.4z M5.9,6.8h1.6l0.3,1.5H6.3L5.9,6.8z
		 M7.4,11C7.2,11,7,10.9,7,10.7L6.7,9.6h1.5L8.5,11L7.4,11L7.4,11L7.4,11z M10.8,11h-1L9.6,9.6h1.3L10.8,11L10.8,11z M10.8,8.3H9.3
		L8.9,6.8h1.9V8.3z M10.8,5.4H8.6L8.3,3.8h2.6V5.4z M13.3,11h-1.1V9.6h1.4L13.3,11z M13.9,8.3h-1.7V6.8h2L13.9,8.3z M12.2,5.4V3.8
		h2.6l-0.3,1.6H12.2z M16.2,10.7c0,0.2-0.2,0.3-0.4,0.3h-1.1L15,9.6h1.4L16.2,10.7z M16.8,8.3h-1.5l0.3-1.5h1.5L16.8,8.3z M17.8,4.3
		l-0.3,1.1h-1.6l0.3-1.6h1.1c0.2,0,0.3,0.1,0.3,0.2C17.7,4,17.8,4.1,17.8,4.3z"/>
</g>
</svg>
