<?xml version="1.0" encoding="utf-8"?>
<!-- Generator: Adobe Illustrator 16.0.3, SVG Export Plug-In . SVG Version: 6.00 Build 0)  -->
<!DOCTYPE svg PUBLIC "-//W3C//DTD SVG 1.1//EN" "http://www.w3.org/Graphics/SVG/1.1/DTD/svg11.dtd">
<svg version="1.1" id="Layer_1" xmlns="http://www.w3.org/2000/svg" xmlns:xlink="http://www.w3.org/1999/xlink" x="0px" y="0px"
	 width="16px" height="16px" viewBox="0 0 16 16" enable-background="new 0 0 16 16" xml:space="preserve">
<rect fill="#EE2C68" width="16" height="16"/>
<g>
	<path fill="#FFFFFF" d="M0.122,11.697v-0.853c0-0.059,0.015-0.115,0.043-0.166L2.171,7.16C2.34,6.869,2.474,6.398,2.474,5.871
		c0-0.369-0.19-0.56-0.459-0.56c-0.27,0-0.482,0.179-0.482,0.549v0.146c0,0.185-0.15,0.336-0.335,0.336h-0.83
		c-0.186,0-0.336-0.151-0.336-0.336v-0.09c0-0.694,0.191-1.098,0.549-1.434c0.359-0.347,0.896-0.515,1.435-0.515
		c0.537,0,0.996,0.123,1.366,0.459c0.348,0.313,0.593,0.806,0.593,1.5c0,0.561-0.167,1.222-0.437,1.681L2.03,10.184
		c-0.296,0.505-0.296,0.505,0.29,0.505h1.319c0.186,0,0.335,0.15,0.335,0.336v0.673c0,0.186-0.15,0.336-0.335,0.336H0.457
		C0.272,12.033,0.122,11.883,0.122,11.697"/>
	<path fill="#FFFFFF" d="M8.882,11.697V8.137c0-0.112-0.159-0.137-0.193-0.03l-0.606,2.27c-0.044,0.139-0.174,0.233-0.32,0.233
		H7.438c-0.147,0-0.277-0.096-0.321-0.235L6.534,8.136C6.5,8.028,6.339,8.053,6.339,8.166v3.531c0,0.186-0.15,0.336-0.336,0.336
		H5.084c-0.186,0-0.335-0.15-0.335-0.336V4.393c0-0.186,0.15-0.336,0.335-0.336h0.832c0.14,0,0.266,0.087,0.314,0.219l1.24,3.33
		c0.046,0.125,0.223,0.125,0.27,0l1.24-3.33c0.049-0.131,0.174-0.219,0.314-0.219h0.843c0.186,0,0.336,0.15,0.336,0.336v7.305
		c0,0.186-0.15,0.336-0.336,0.336H9.218C9.032,12.033,8.882,11.883,8.882,11.697"/>
	<path fill="#FFFFFF" d="M15.374,11.26c-0.358,0.415-0.852,0.773-1.748,0.773h-1.915c-0.186,0-0.336-0.15-0.336-0.336V4.393
		c0-0.186,0.15-0.336,0.336-0.336h1.915c0.896,0,1.39,0.359,1.748,0.773c0.639,0.74,0.594,2.173,0.594,3.215
		S16.013,10.521,15.374,11.26 M14.187,5.838c-0.1-0.202-0.303-0.347-0.594-0.347h-0.434c-0.107,0-0.193,0.087-0.193,0.193v4.717
		c0,0.109,0.088,0.197,0.197,0.197h0.43c0.291,0,0.494-0.145,0.594-0.347c0.19-0.37,0.19-1.333,0.19-2.218
		S14.377,6.208,14.187,5.838"/>
</g>
</svg>
